{
	"autoSave": true,
	"autoSaveDelay": 1000,
	"titleBarStyle": "native",
	"openFilesInNewWindow": false,
	"openFolderInNewWindow": false,
	"zoom": 1,
	"hideScrollbar": false,
	"wordWrapInToc": false,
	"fileSortBy": "created",
	"startUpAction": "lastState",
	"language": "en",
	"editorFontFamily": "Libre Baskerville",
	"fontSize": 16,
	"lineHeight": 1.6,
	"editorLineWidth": "",
	"codeFontSize": 14,
	"codeFontFamily": "DejaVu Sans Mono",
	"codeBlockLineNumbers": true,
	"trimUnnecessaryCodeBlockEmptyLines": true,
	"autoPairBracket": true,
	"autoPairMarkdownSyntax": true,
	"autoPairQuote": true,
	"endOfLine": "default",
	"defaultEncoding": "utf8",
	"autoGuessEncoding": true,
	"trimTrailingNewline": 2,
	"textDirection": "ltr",
	"hideQuickInsertHint": false,
	"hideLinkPopup": false,
	"autoCheck": false,
	"preferLooseListItem": false,
	"bulletListMarker": "-",
	"orderListDelimiter": ".",
	"preferHeadingStyle": "atx",
	"tabSize": 4,
	"listIndentation": "tab",
	"frontmatterType": "-",
	"superSubScript": true,
	"footnote": true,
	"isHtmlEnabled": true,
	"isGitlabCompatibilityEnabled": false,
	"sequenceTheme": "hand",
	"theme": "dark",
	"autoSwitchTheme": 2,
	"spellcheckerEnabled": false,
	"spellcheckerIsHunspell": false,
	"spellcheckerNoUnderline": false,
	"spellcheckerAutoDetectLanguage": false,
	"spellcheckerLanguage": "en-US",
	"imageInsertAction": "path",
	"imagePreferRelativeDirectory": false,
	"imageRelativeDirectoryName": "assets",
	"sideBarVisibility": false,
	"tabBarVisibility": false,
	"sourceCodeModeEnabled": false,
	"searchExclusions": [],
	"searchMaxFileSize": "",
	"searchIncludeHidden": false,
	"searchNoIgnore": false,
	"searchFollowSymlinks": true,
	"watcherUsePolling": false,
	"defaultDirectoryToOpen": ""
}